%YAML 1.1
%TAG !u! tag:unity3d.com,2011:
--- !u!114 &11400000
MonoBehaviour:
  m_ObjectHideFlags: 0
  m_CorrespondingSourceObject: {fileID: 0}
  m_PrefabInstance: {fileID: 0}
  m_PrefabAsset: {fileID: 0}
  m_GameObject: {fileID: 0}
  m_Enabled: 1
  m_EditorHideFlags: 0
  m_Script: {fileID: 11500000, guid: 0b864a50955256949af842bcd2226709, type: 3}
  m_Name: TestSpriteGenerator
  m_EditorClassIdentifier: 
  tileToModify: {fileID: 11400000, guid: d3114094378972d48ad4d88d908ade1c, type: 2}
  baseTexture: {fileID: 2800000, guid: 92ed92575dad2df4bbb8a023063d169b, type: 3}
  simplifiedTexture1: {fileID: 2800000, guid: 1b73486c3515a8f418240610f76a7487, type: 3}
  simplifiedTexture2: {fileID: 2800000, guid: f8407c44275859e4198e34dbe56dc143, type: 3}
  singleTexture1: {fileID: 2800000, guid: cfaa6e0a5e4cb3440adc07d69c96d55f, type: 3}
  singleTexture2: {fileID: 2800000, guid: cc8bbd8298c475c47b9b4f238e3f658f, type: 3}
  adjacentTexture1: {fileID: 2800000, guid: f4ee88bfc286c58429ff62b17836ba2d, type: 3}
  adjacentTexture2: {fileID: 2800000, guid: c7d7d999fe87f804ea8ec1ff14da4a75, type: 3}
  skipTexture1: {fileID: 2800000, guid: 2c8b6a6a1f00b704fa2c98e1323cc337, type: 3}
  skipTexture2: {fileID: 2800000, guid: a10d93bff596f2c43ac3f882940b964c, type: 3}
  oppositeTexture1: {fileID: 2800000, guid: 2c0b9c975dae19341ae672658293313a, type: 3}
  oppositeTexture2: {fileID: 2800000, guid: 622976cfbb415a34a9f4d85fbd44aa03, type: 3}
  multiplyOverlayTexture: {fileID: 2800000, guid: 64c8e1a20b916c9478136e6c05435f8b, type: 3}
  baseColor: {r: 0.43529412, g: 0.17410958, b: 0, a: 1}
  topLayerColor: {r: 0.28292987, g: 0.761685, b: 0.8018868, a: 1}
  sides: 000100000100
  useSimplifiedTextures: 0
  mergeAdjacent: 1
  mergeSkipAlways: 0
  mergeSkipToJoinMultiple: 1
  mergeOpposite: 1
  pixelsPerUnit: 256
