%YAML 1.1
%TAG !u! tag:unity3d.com,2011:
--- !u!114 &11400000
MonoBehaviour:
  m_ObjectHideFlags: 0
  m_CorrespondingSourceObject: {fileID: 0}
  m_PrefabInstance: {fileID: 0}
  m_PrefabAsset: {fileID: 0}
  m_GameObject: {fileID: 0}
  m_Enabled: 1
  m_EditorHideFlags: 0
  m_Script: {fileID: 11500000, guid: 293b06a660ccb7044a030955af10cd70, type: 3}
  m_Name: Water024
  m_EditorClassIdentifier: 
  mapTile: {fileID: 11400000, guid: 783964bfec66d5e46b12711c6ff2dc1a, type: 2}
  upperLeftEdge:
    edge: 1
  upperRightEdge:
    edge: 0
  midLeftEdge:
    edge: 0
  midRightEdge:
    edge: 1
  lowerLeftEdge:
    edge: 1
  lowerRightEdge:
    edge: 0
